{"status":true,"msg":"done","data":{"seoOnPage":{"og_type":"website","titleHead":"Phim Kinh D\u1ecb | Phim Kinh D\u1ecb hay tuy\u1ec3n ch\u1ecdn | Phim Kinh D\u1ecb m\u1edbi nh\u1ea5t 2025","descriptionHead":"Phim Kinh D\u1ecb m\u1edbi nh\u1ea5t tuy\u1ec3n ch\u1ecdn ch\u1ea5t l\u01b0\u1ee3ng cao, phim Kinh D\u1ecb vietsub c\u1eadp nh\u1eadt nhanh nh\u1ea5t. Phim Kinh D\u1ecb vietsub nhanh nh\u1ea5t","og_image":["\/upload\/vod\/20250821-1\/04330d70fa274f9d5cbaeb5ad15597c6.jpg","\/upload\/vod\/20250817-1\/ce2ea3effced8ba77787a5192f395154.jpg","\/upload\/vod\/20250817-1\/4b3fa3a0ab1ff42256ac2cba5f370425.jpg","\/upload\/vod\/20250815-1\/42804602e3234bd9a8717708ff859e03.jpg","\/upload\/vod\/20250815-1\/3ac2b954e557e5336e93a90749ff75fa.jpg","\/upload\/vod\/20250815-1\/cb4a6292756226995a118c95805eae16.jpg","\/upload\/vod\/20250815-1\/d2b88793394d6c3c6c006bdc517826b0.jpg","\/upload\/vod\/20250815-1\/88052bfd7bfdf14e9bfc42ec7ec54812.jpg","\/upload\/vod\/20250526-1\/22a9990fd0b43a0df82d6798d1e1c502.jpg","\/upload\/vod\/20250323-1\/1b5a22c27996cde1f32b19c449853063.jpg","\/upload\/vod\/20250814-1\/e4358d584e2d1cf7014ccdff329857a1.jpg","\/upload\/vod\/20250813-1\/ac93509330da4b880a96d81130914b5d.jpg","\/upload\/vod\/20250813-1\/03e759ba832a9be92d6f0229e7a134fb.jpg","\/upload\/vod\/20250813-1\/de344d8c90387d4fc479cee527a6cfef.jpg","\/upload\/vod\/20250813-1\/d4338f3a48a12ac9ed9cbea0ab13f1c9.jpg","\/upload\/vod\/20250813-1\/6c43c42a406bc7c755565515c389cea8.jpg","\/upload\/vod\/20250813-1\/291741fbfae00c01f9c2cb9bcb8e65ca.jpg","\/upload\/vod\/20250811-1\/8ca2d150e780388fe74689641e4e12b2.jpg","\/upload\/vod\/20250809-1\/2a678ce07a17861a89bc55ba4560e2a3.jpg","\/upload\/vod\/20250808-1\/bfaa38098d101f0497e77fdb72b4f154.jpg"],"og_url":"the-loai\/kinh-di"},"breadCrumb":[{"name":"Kinh D\u1ecb","slug":"\/the-loai\/kinh-di","isCurrent":false,"position":2},{"name":"Trang 1","isCurrent":true,"position":3}],"titlePage":"Kinh D\u1ecb","items":[{"tmdb":{"type":"movie","id":"1078605","season":null,"vote_average":7.5,"vote_count":457},"imdb":{"id":null},"created":{"time":"2025-08-20T14:20:18.000Z"},"modified":{"time":"2025-08-21T00:56:00.000Z"},"_id":"47ff2df82c7ee1eee6a617829de46b22","name":"Gi\u1edd M\u1ea5t T\u00edch","slug":"gio-mat-tich","origin_name":"Weapons","type":"single","poster_url":"upload\/vod\/20250821-1\/04330d70fa274f9d5cbaeb5ad15597c6.jpg","thumb_url":"upload\/vod\/20250821-1\/52dbbae17b38b2f839ad2ee9fa014050.jpg","sub_docquyen":false,"chieurap":true,"time":"129 ph\u00fat","episode_current":"Full","quality":"CAM","lang":"Vietsub","year":2025,"category":[{"id":"4db8d7d4b9873981e3eeb76d02997d58","name":"Kinh D\u1ecb","slug":"kinh-di"},{"id":"2fb53017b3be83cd754a08adab3e916c","name":"B\u00ed \u1ea8n","slug":"bi-an"},{"id":"37a7b38b6184a5ebd3c43015aa20709d","name":"Ch\u00ednh K\u1ecbch","slug":"chinh-kich"},{"id":"a7b065b92ad356387ef2e075dee66529","name":"T\u00e2m L\u00fd","slug":"tam-ly"}],"country":[{"id":"74d9fa92f4dea9ecea8fc2233dc7921a","name":"\u00c2u M\u1ef9","slug":"au-my"}]},{"tmdb":{"type":"movie","id":"1265800","season":null,"vote_average":6.25,"vote_count":8},"imdb":{"id":null},"created":{"time":"2025-08-17T10:58:12.000Z"},"modified":{"time":"2025-08-17T10:58:12.000Z"},"_id":"172f0a8ab07095a5e4fa4945f59afb10","name":"Ng\u00f4i Nh\u00e0 C\u1ee7a Sayuri","slug":"ngoi-nha-cua-sayuri","origin_name":"House Of Sayuri","type":"single","poster_url":"upload\/vod\/20250817-1\/ce2ea3effced8ba77787a5192f395154.jpg","thumb_url":"upload\/vod\/20250817-1\/d93d5d2776f000394866895ced8f344d.jpg","sub_docquyen":false,"chieurap":false,"time":"108 ph\u00fat","episode_current":"Full","quality":"FHD","lang":"Vietsub","year":2024,"category":[{"id":"4db8d7d4b9873981e3eeb76d02997d58","name":"Kinh D\u1ecb","slug":"kinh-di"},{"id":"2fb53017b3be83cd754a08adab3e916c","name":"B\u00ed \u1ea8n","slug":"bi-an"},{"id":"37a7b38b6184a5ebd3c43015aa20709d","name":"Ch\u00ednh K\u1ecbch","slug":"chinh-kich"},{"id":"a7b065b92ad356387ef2e075dee66529","name":"T\u00e2m L\u00fd","slug":"tam-ly"}],"country":[{"id":"d4097fbffa8f7149a61281437171eb83","name":"Nh\u1eadt B\u1ea3n","slug":"nhat-ban"}]},{"tmdb":{"type":"movie","id":"1339166","season":null,"vote_average":5.8,"vote_count":15},"imdb":{"id":null},"created":{"time":"2025-08-17T10:51:19.000Z"},"modified":{"time":"2025-08-17T10:52:06.000Z"},"_id":"d2e404b542447bc9b745627894c4d1d9","name":"\u0110\u1ee9c Tin","slug":"duc-tin","origin_name":"Shaman","type":"single","poster_url":"upload\/vod\/20250817-1\/4b3fa3a0ab1ff42256ac2cba5f370425.jpg","thumb_url":"upload\/vod\/20250817-1\/64f7d2558d09d547629d29b041be3c6c.jpg","sub_docquyen":false,"chieurap":false,"time":"93 ph\u00fat","episode_current":"Full","quality":"FHD","lang":"Vietsub","year":2025,"category":[{"id":"4db8d7d4b9873981e3eeb76d02997d58","name":"Kinh D\u1ecb","slug":"kinh-di"},{"id":"2fb53017b3be83cd754a08adab3e916c","name":"B\u00ed \u1ea8n","slug":"bi-an"},{"id":"a7b065b92ad356387ef2e075dee66529","name":"T\u00e2m L\u00fd","slug":"tam-ly"},{"id":"37a7b38b6184a5ebd3c43015aa20709d","name":"Ch\u00ednh K\u1ecbch","slug":"chinh-kich"}],"country":[{"id":"4d5d85af33ec2aaedb674d2d6a7d53b6","name":"Ecuador","slug":"ecuador"},{"id":"74d9fa92f4dea9ecea8fc2233dc7921a","name":"\u00c2u M\u1ef9","slug":"au-my"}]},{"tmdb":{"type":"movie","id":"3602","season":null,"vote_average":4.22,"vote_count":434},"imdb":{"id":null},"created":{"time":"2025-08-15T21:24:13.000Z"},"modified":{"time":"2025-08-15T21:24:13.000Z"},"_id":"afbf26e5140c29aaa56d6e2bba9ea5a1","name":"M\u00f9a H\u00e8 Kinh H\u00e3i 3","slug":"mua-he-kinh-hai-3","origin_name":"I'll Always Know What You Did Last Summer","type":"single","poster_url":"upload\/vod\/20250815-1\/42804602e3234bd9a8717708ff859e03.jpg","thumb_url":"upload\/vod\/20250815-1\/94c5449c93d052a294adaf5a4c93e1a7.jpg","sub_docquyen":false,"chieurap":false,"time":"92 ph\u00fat","episode_current":"Full","quality":"FHD","lang":"Vietsub","year":2006,"category":[{"id":"4db8d7d4b9873981e3eeb76d02997d58","name":"Kinh D\u1ecb","slug":"kinh-di"},{"id":"37a7b38b6184a5ebd3c43015aa20709d","name":"Ch\u00ednh K\u1ecbch","slug":"chinh-kich"},{"id":"a7b065b92ad356387ef2e075dee66529","name":"T\u00e2m L\u00fd","slug":"tam-ly"}],"country":[{"id":"74d9fa92f4dea9ecea8fc2233dc7921a","name":"\u00c2u M\u1ef9","slug":"au-my"}]},{"tmdb":{"type":"movie","id":"3597","season":null,"vote_average":5.984,"vote_count":2998},"imdb":{"id":null},"created":{"time":"2025-08-15T21:21:04.000Z"},"modified":{"time":"2025-08-15T21:21:04.000Z"},"_id":"868d3e19e2f0bd6c95606283eb384bd2","name":"M\u00f9a H\u00e8 Kinh H\u00e3i","slug":"mua-he-kinh-hai","origin_name":"I Know What You Did Last Summer","type":"single","poster_url":"upload\/vod\/20250815-1\/3ac2b954e557e5336e93a90749ff75fa.jpg","thumb_url":"upload\/vod\/20250815-1\/65fc1b38e7c021153a120438b0f2060f.jpg","sub_docquyen":false,"chieurap":false,"time":"102 ph\u00fat","episode_current":"Full","quality":"FHD","lang":"Vietsub","year":1997,"category":[{"id":"4db8d7d4b9873981e3eeb76d02997d58","name":"Kinh D\u1ecb","slug":"kinh-di"},{"id":"a7b065b92ad356387ef2e075dee66529","name":"T\u00e2m L\u00fd","slug":"tam-ly"},{"id":"2fb53017b3be83cd754a08adab3e916c","name":"B\u00ed \u1ea8n","slug":"bi-an"},{"id":"37a7b38b6184a5ebd3c43015aa20709d","name":"Ch\u00ednh K\u1ecbch","slug":"chinh-kich"}],"country":[{"id":"74d9fa92f4dea9ecea8fc2233dc7921a","name":"\u00c2u M\u1ef9","slug":"au-my"}]},{"tmdb":{"type":"movie","id":"1463205","season":null,"vote_average":0,"vote_count":0},"imdb":{"id":null},"created":{"time":"2025-08-15T21:13:43.000Z"},"modified":{"time":"2025-08-15T21:13:43.000Z"},"_id":"178656689427a1c3b74f44d9f4fc0754","name":"C\u00f4 L\u1eadp","slug":"co-lap","origin_name":"Isolated","type":"single","poster_url":"upload\/vod\/20250815-1\/cb4a6292756226995a118c95805eae16.jpg","thumb_url":"upload\/vod\/20250815-1\/25e9bab8542c8de76fb71e275b2d2917.jpg","sub_docquyen":false,"chieurap":false,"time":"101 ph\u00fat","episode_current":"Full","quality":"FHD","lang":"Vietsub","year":2025,"category":[{"id":"4db8d7d4b9873981e3eeb76d02997d58","name":"Kinh D\u1ecb","slug":"kinh-di"},{"id":"a7b065b92ad356387ef2e075dee66529","name":"T\u00e2m L\u00fd","slug":"tam-ly"},{"id":"2fb53017b3be83cd754a08adab3e916c","name":"B\u00ed \u1ea8n","slug":"bi-an"},{"id":"37a7b38b6184a5ebd3c43015aa20709d","name":"Ch\u00ednh K\u1ecbch","slug":"chinh-kich"}],"country":[{"id":"77dab2f81a6c8c9136efba7ab2c4c0f2","name":"Philippines","slug":"philippines"}]},{"tmdb":{"type":"movie","id":"1194963","season":null,"vote_average":6.8,"vote_count":5},"imdb":{"id":null},"created":{"time":"2025-08-15T10:45:35.000Z"},"modified":{"time":"2025-08-15T10:45:35.000Z"},"_id":"d9c9af41dda3bd35df1fddd4ff2b9b2b","name":"Ti\u1ebfng \u1ed2n Qu\u1ef7 D\u1ecb","slug":"tieng-on-quy-di-2025","origin_name":"Noise","type":"single","poster_url":"upload\/vod\/20250815-1\/d2b88793394d6c3c6c006bdc517826b0.jpg","thumb_url":"upload\/vod\/20250815-1\/3d49327392760934c7ba577a8deb767b.jpg","sub_docquyen":false,"chieurap":false,"time":"95 ph\u00fat","episode_current":"Full","quality":"FHD","lang":"Vietsub","year":2025,"category":[{"id":"4db8d7d4b9873981e3eeb76d02997d58","name":"Kinh D\u1ecb","slug":"kinh-di"},{"id":"a7b065b92ad356387ef2e075dee66529","name":"T\u00e2m L\u00fd","slug":"tam-ly"}],"country":[{"id":"05de95be5fc404da9680bbb3dd8262e6","name":"H\u00e0n Qu\u1ed1c","slug":"han-quoc"}]},{"tmdb":{"type":"movie","id":"1452176","season":null,"vote_average":5.2,"vote_count":10},"imdb":{"id":null},"created":{"time":"2025-08-15T10:34:26.000Z"},"modified":{"time":"2025-08-15T10:34:26.000Z"},"_id":"3d3f53e1702fe7d002b4dd7d166d1996","name":"Nh\u1eefng Ch\u00e0ng Trai Nh\u00e0 Abraham: Chuy\u1ec7n Ma C\u00e0 R\u1ed3ng","slug":"nhung-chang-trai-nha-abraham-chuyen-ma-ca-rong","origin_name":"Abraham's Boys","type":"single","poster_url":"upload\/vod\/20250815-1\/88052bfd7bfdf14e9bfc42ec7ec54812.jpg","thumb_url":"upload\/vod\/20250815-1\/f3c5f260f0a8517c6c9442d387e76f3a.jpg","sub_docquyen":false,"chieurap":false,"time":"89 ph\u00fat","episode_current":"Full","quality":"FHD","lang":"Vietsub","year":2025,"category":[{"id":"4db8d7d4b9873981e3eeb76d02997d58","name":"Kinh D\u1ecb","slug":"kinh-di"},{"id":"2fb53017b3be83cd754a08adab3e916c","name":"B\u00ed \u1ea8n","slug":"bi-an"},{"id":"a7b065b92ad356387ef2e075dee66529","name":"T\u00e2m L\u00fd","slug":"tam-ly"}],"country":[{"id":"74d9fa92f4dea9ecea8fc2233dc7921a","name":"\u00c2u M\u1ef9","slug":"au-my"}]},{"tmdb":{"type":"movie","id":"850439","season":null,"vote_average":5.97,"vote_count":66},"imdb":{"id":null},"created":{"time":"2025-05-26T08:17:40.000Z"},"modified":{"time":"2025-08-14T17:52:22.000Z"},"_id":"96045cb4b220959781bbbff6f5367268","name":"B\u1ea3n \u00c1n C\u1ee7a L\u01b0\u01a1ng T\u00e2m (K\u1ebb B\u1ecb Nguy\u1ec1n R\u1ee7a)","slug":"ban-an-cua-luong-tam-ke-bi-nguyen-rua","origin_name":"The Damned","type":"single","poster_url":"upload\/vod\/20250526-1\/22a9990fd0b43a0df82d6798d1e1c502.jpg","thumb_url":"upload\/vod\/20250526-1\/18b53247a7ebb57f9cc18c3ece9cc731.jpg","sub_docquyen":false,"chieurap":false,"time":"89 ph\u00fat","episode_current":"Full","quality":"FHD","lang":"Vietsub","year":2025,"category":[{"id":"37a7b38b6184a5ebd3c43015aa20709d","name":"Ch\u00ednh K\u1ecbch","slug":"chinh-kich"},{"id":"4db8d7d4b9873981e3eeb76d02997d58","name":"Kinh D\u1ecb","slug":"kinh-di"},{"id":"2fb53017b3be83cd754a08adab3e916c","name":"B\u00ed \u1ea8n","slug":"bi-an"}],"country":[{"id":"06e415f918c577f07328a52e24f75d43","name":"Ireland","slug":"ireland"},{"id":"932bbaca386ee0436ad0159117eabae4","name":"Anh","slug":"anh"},{"id":"74d9fa92f4dea9ecea8fc2233dc7921a","name":"\u00c2u M\u1ef9","slug":"au-my"},{"id":"b78edab0f52e0d6c195fd0d8c5709d26","name":"Iceland","slug":"iceland"},{"id":"93e1c1318f7b84817ab855208973039b","name":"B\u1ec9","slug":"bi"}]},{"tmdb":{"type":"movie","id":"1324428","season":null,"vote_average":8,"vote_count":1},"imdb":{"id":null},"created":{"time":"2025-03-23T22:22:14.000Z"},"modified":{"time":"2025-08-14T15:40:47.000Z"},"_id":"0447abe5b3fbb484f70517e8a1091b4e","name":"L\u00e0m Gi\u00e0u V\u1edbi Ma","slug":"lam-giau-voi-ma","origin_name":"Betting With Ghost","type":"single","poster_url":"upload\/vod\/20250323-1\/1b5a22c27996cde1f32b19c449853063.jpg","thumb_url":"upload\/vod\/20250323-1\/5c8b4a2c724d8cbee887c0b90767633d.jpg","sub_docquyen":false,"chieurap":true,"time":"113 ph\u00fat","episode_current":"Full","quality":"FHD","lang":"Vietsub","year":2024,"category":[{"id":"ba6fd52e5a3aca80eaaf1a3b50a182db","name":"H\u00e0i H\u01b0\u1edbc","slug":"hai-huoc"},{"id":"a2492d6cbc4d58f115406ca14e5ec7b6","name":"Gia \u0110\u00ecnh","slug":"gia-dinh"},{"id":"4db8d7d4b9873981e3eeb76d02997d58","name":"Kinh D\u1ecb","slug":"kinh-di"}],"country":[{"id":"f6ce1ae8b39af9d38d653b8a0890adb8","name":"Vi\u1ec7t Nam","slug":"viet-nam"}]},{"tmdb":{"type":"movie","id":"507089","season":null,"vote_average":7.424,"vote_count":4489},"imdb":{"id":null},"created":{"time":"2025-08-14T11:05:10.000Z"},"modified":{"time":"2025-08-14T11:05:10.000Z"},"_id":"9b665b2accf17da9077cea4c5dad8e94","name":"N\u0103m \u0110\u00eam Kinh Ho\u00e0ng","slug":"nam-dem-kinh-hoang","origin_name":"Five Nights at Freddy's","type":"single","poster_url":"upload\/vod\/20250814-1\/e4358d584e2d1cf7014ccdff329857a1.jpg","thumb_url":"upload\/vod\/20250814-1\/416a0045314de9aae458caf796022950.jpg","sub_docquyen":false,"chieurap":false,"time":"110 ph\u00fat","episode_current":"Full","quality":"FHD","lang":"Vietsub","year":2023,"category":[{"id":"4db8d7d4b9873981e3eeb76d02997d58","name":"Kinh D\u1ecb","slug":"kinh-di"},{"id":"a7b065b92ad356387ef2e075dee66529","name":"T\u00e2m L\u00fd","slug":"tam-ly"},{"id":"37a7b38b6184a5ebd3c43015aa20709d","name":"Ch\u00ednh K\u1ecbch","slug":"chinh-kich"}],"country":[{"id":"74d9fa92f4dea9ecea8fc2233dc7921a","name":"\u00c2u M\u1ef9","slug":"au-my"}]},{"tmdb":{"type":"movie","id":"1241624","season":null,"vote_average":7.333,"vote_count":3},"imdb":{"id":null},"created":{"time":"2025-08-13T06:54:33.000Z"},"modified":{"time":"2025-08-13T23:27:54.000Z"},"_id":"06bd2df0534a430a7ee6a006a5dfd218","name":"Ga T\u1eed Th\u1ea7n","slug":"ga-tu-than-2025","origin_name":"Ghost Train","type":"single","poster_url":"upload\/vod\/20250813-1\/ac93509330da4b880a96d81130914b5d.jpg","thumb_url":"upload\/vod\/20250813-1\/91642ac68854efc43ef37ec70a2cbd44.jpg","sub_docquyen":false,"chieurap":true,"time":"95 ph\u00fat","episode_current":"Full","quality":"FHD","lang":"Vietsub","year":2025,"category":[{"id":"4db8d7d4b9873981e3eeb76d02997d58","name":"Kinh D\u1ecb","slug":"kinh-di"},{"id":"37a7b38b6184a5ebd3c43015aa20709d","name":"Ch\u00ednh K\u1ecbch","slug":"chinh-kich"},{"id":"a7b065b92ad356387ef2e075dee66529","name":"T\u00e2m L\u00fd","slug":"tam-ly"}],"country":[{"id":"05de95be5fc404da9680bbb3dd8262e6","name":"H\u00e0n Qu\u1ed1c","slug":"han-quoc"}]},{"tmdb":{"type":"movie","id":"1058638","season":null,"vote_average":6.399,"vote_count":129},"imdb":{"id":null},"created":{"time":"2025-08-13T10:05:40.000Z"},"modified":{"time":"2025-08-13T10:05:40.000Z"},"_id":"8238291cb43f4eb400feef91b4ddc225","name":"Sinh\/T\u00e1i Sinh","slug":"sinhtai-sinh","origin_name":"Birth\/Rebirth","type":"single","poster_url":"upload\/vod\/20250813-1\/03e759ba832a9be92d6f0229e7a134fb.jpg","thumb_url":"upload\/vod\/20250813-1\/9fc2f990f627c7b93eb5269d15ab31f6.jpg","sub_docquyen":false,"chieurap":false,"time":"99 ph\u00fat","episode_current":"Full","quality":"FHD","lang":"Vietsub","year":2023,"category":[{"id":"4db8d7d4b9873981e3eeb76d02997d58","name":"Kinh D\u1ecb","slug":"kinh-di"},{"id":"2fb53017b3be83cd754a08adab3e916c","name":"B\u00ed \u1ea8n","slug":"bi-an"},{"id":"a7b065b92ad356387ef2e075dee66529","name":"T\u00e2m L\u00fd","slug":"tam-ly"},{"id":"37a7b38b6184a5ebd3c43015aa20709d","name":"Ch\u00ednh K\u1ecbch","slug":"chinh-kich"},{"id":"0bcf4077916678de9b48c89221fcf8ae","name":"Khoa H\u1ecdc","slug":"khoa-hoc"},{"id":"68564911f00849030f9c9c144ea1b931","name":"Vi\u1ec5n T\u01b0\u1edfng","slug":"vien-tuong"}],"country":[{"id":"74d9fa92f4dea9ecea8fc2233dc7921a","name":"\u00c2u M\u1ef9","slug":"au-my"}]},{"tmdb":{"type":null,"id":null,"season":null,"vote_average":0,"vote_count":0},"imdb":{"id":null},"created":{"time":"2025-08-13T10:03:53.000Z"},"modified":{"time":"2025-08-13T10:03:53.000Z"},"_id":"ae5b201527b188809873d2f108db3a79","name":"S\u00e1t Th\u1ee7 T\u00ecnh D\u1ee5c","slug":"sat-thu-tinh-duc--2024","origin_name":"Art Of Diversion","type":"single","poster_url":"upload\/vod\/20250813-1\/de344d8c90387d4fc479cee527a6cfef.jpg","thumb_url":"upload\/vod\/20250813-1\/891232a8dc9c76faf22b2a62fcd4f5ac.jpg","sub_docquyen":false,"chieurap":false,"time":"86 ph\u00fat","episode_current":"Full","quality":"FHD","lang":"Vietsub","year":2024,"category":[{"id":"37a7b38b6184a5ebd3c43015aa20709d","name":"Ch\u00ednh K\u1ecbch","slug":"chinh-kich"},{"id":"a7b065b92ad356387ef2e075dee66529","name":"T\u00e2m L\u00fd","slug":"tam-ly"},{"id":"4db8d7d4b9873981e3eeb76d02997d58","name":"Kinh D\u1ecb","slug":"kinh-di"},{"id":"2fb53017b3be83cd754a08adab3e916c","name":"B\u00ed \u1ea8n","slug":"bi-an"}],"country":[{"id":"af5c50bf625c1da71838678a5cf37189","name":"\u00c2u My\u0303","slug":"au-my"}]},{"tmdb":{"type":"movie","id":"1281398","season":null,"vote_average":6.5,"vote_count":2},"imdb":{"id":null},"created":{"time":"2025-08-13T09:50:51.000Z"},"modified":{"time":"2025-08-13T09:50:51.000Z"},"_id":"b8ba4466c47209f470ae8902069192a6","name":"Halabala: R\u1eebng Ma T\u1ebf X\u00e1c","slug":"halabala-rung-ma-te-xac","origin_name":"Halabala (Survival Cut)","type":"single","poster_url":"upload\/vod\/20250813-1\/d4338f3a48a12ac9ed9cbea0ab13f1c9.jpg","thumb_url":"upload\/vod\/20250813-1\/a6d8846f1466a45654dea239b4897494.jpg","sub_docquyen":false,"chieurap":false,"time":"105 ph\u00fat","episode_current":"Full","quality":"FHD","lang":"Vietsub","year":2025,"category":[{"id":"4db8d7d4b9873981e3eeb76d02997d58","name":"Kinh D\u1ecb","slug":"kinh-di"},{"id":"9822be111d2ccc29c7172c78b8af8ff5","name":"H\u00e0nh \u0110\u1ed9ng","slug":"hanh-dong"},{"id":"a7b065b92ad356387ef2e075dee66529","name":"T\u00e2m L\u00fd","slug":"tam-ly"},{"id":"2fb53017b3be83cd754a08adab3e916c","name":"B\u00ed \u1ea8n","slug":"bi-an"}],"country":[{"id":"cefbf1640a17bad1e13c2f6f2a811a2d","name":"Th\u00e1i Lan","slug":"thai-lan"}]},{"tmdb":{"type":"movie","id":"1242011","season":null,"vote_average":7.4,"vote_count":135},"imdb":{"id":null},"created":{"time":"2025-08-13T09:47:06.000Z"},"modified":{"time":"2025-08-13T09:47:06.000Z"},"_id":"b4c544e383856764707838df2ebaff46","name":"D\u00ednh L\u1eb9o","slug":"dinh-leo","origin_name":"Together","type":"single","poster_url":"upload\/vod\/20250813-1\/6c43c42a406bc7c755565515c389cea8.jpg","thumb_url":"upload\/vod\/20250813-1\/5786ddc139ac4541d223f281f806bed3.jpg","sub_docquyen":false,"chieurap":true,"time":"102 ph\u00fat","episode_current":"Full","quality":"FHD","lang":"Vietsub + Thuy\u1ebft Minh","year":2025,"category":[{"id":"4db8d7d4b9873981e3eeb76d02997d58","name":"Kinh D\u1ecb","slug":"kinh-di"},{"id":"37a7b38b6184a5ebd3c43015aa20709d","name":"Ch\u00ednh K\u1ecbch","slug":"chinh-kich"},{"id":"2fb53017b3be83cd754a08adab3e916c","name":"B\u00ed \u1ea8n","slug":"bi-an"},{"id":"a7b065b92ad356387ef2e075dee66529","name":"T\u00e2m L\u00fd","slug":"tam-ly"}],"country":[{"id":"74d9fa92f4dea9ecea8fc2233dc7921a","name":"\u00c2u M\u1ef9","slug":"au-my"}]},{"tmdb":{"type":"movie","id":"1206083","season":null,"vote_average":3.2,"vote_count":5},"imdb":{"id":null},"created":{"time":"2025-08-13T09:45:34.000Z"},"modified":{"time":"2025-08-13T09:45:34.000Z"},"_id":"fd37c8fab2b7e539b0131c6572ee7d1c","name":"Cu\u1ed9n B\u0103ng Qu\u1ef7 \u00c1m","slug":"cuon-bang-quy-am","origin_name":"Conjuring Tapes","type":"single","poster_url":"upload\/vod\/20250813-1\/291741fbfae00c01f9c2cb9bcb8e65ca.jpg","thumb_url":"upload\/vod\/20250813-1\/c49550900bdfe94081fb833a247eee7b.jpg","sub_docquyen":false,"chieurap":false,"time":"79 ph\u00fat","episode_current":"Full","quality":"FHD","lang":"Vietsub","year":2025,"category":[{"id":"4db8d7d4b9873981e3eeb76d02997d58","name":"Kinh D\u1ecb","slug":"kinh-di"},{"id":"2fb53017b3be83cd754a08adab3e916c","name":"B\u00ed \u1ea8n","slug":"bi-an"},{"id":"a7b065b92ad356387ef2e075dee66529","name":"T\u00e2m L\u00fd","slug":"tam-ly"}],"country":[{"id":"74d9fa92f4dea9ecea8fc2233dc7921a","name":"\u00c2u M\u1ef9","slug":"au-my"}]},{"tmdb":{"type":"movie","id":"1404783","season":null,"vote_average":0,"vote_count":0},"imdb":{"id":null},"created":{"time":"2025-08-11T19:02:02.000Z"},"modified":{"time":"2025-08-12T13:42:24.000Z"},"_id":"f4d22497b81f99faf332279c78d63915","name":"\u0110\u00e8n \u00c2m H\u1ed3n","slug":"den-am-hon","origin_name":"The Soul Lantern","type":"single","poster_url":"upload\/vod\/20250811-1\/8ca2d150e780388fe74689641e4e12b2.jpg","thumb_url":"upload\/vod\/20250811-1\/4fa0782db6f3b1e89c270e38d90b9b00.jpg","sub_docquyen":false,"chieurap":true,"time":"101 ph\u00fat","episode_current":"Full","quality":"FHD","lang":"Vietsub","year":2025,"category":[{"id":"4db8d7d4b9873981e3eeb76d02997d58","name":"Kinh D\u1ecb","slug":"kinh-di"},{"id":"37a7b38b6184a5ebd3c43015aa20709d","name":"Ch\u00ednh K\u1ecbch","slug":"chinh-kich"},{"id":"a7b065b92ad356387ef2e075dee66529","name":"T\u00e2m L\u00fd","slug":"tam-ly"}],"country":[{"id":"f6ce1ae8b39af9d38d653b8a0890adb8","name":"Vi\u1ec7t Nam","slug":"viet-nam"}]},{"tmdb":{"type":"movie","id":"401195","season":null,"vote_average":5,"vote_count":2},"imdb":{"id":null},"created":{"time":"2025-08-08T23:58:40.000Z"},"modified":{"time":"2025-08-08T23:58:40.000Z"},"_id":"9f2da2656cb730d8886db16b9cf661b2","name":"C\u01a1 S\u1edf Di\u1ec7t Ma","slug":"co-so-diet-ma","origin_name":"Ghost Busting","type":"single","poster_url":"upload\/vod\/20250809-1\/2a678ce07a17861a89bc55ba4560e2a3.jpg","thumb_url":"upload\/vod\/20250809-1\/37b086ea4f7d96af416911570ea70d33.jpg","sub_docquyen":false,"chieurap":false,"time":"95 ph\u00fat","episode_current":"Full","quality":"FHD","lang":"Vietsub","year":1989,"category":[{"id":"ba6fd52e5a3aca80eaaf1a3b50a182db","name":"H\u00e0i H\u01b0\u1edbc","slug":"hai-huoc"},{"id":"4db8d7d4b9873981e3eeb76d02997d58","name":"Kinh D\u1ecb","slug":"kinh-di"},{"id":"37a7b38b6184a5ebd3c43015aa20709d","name":"Ch\u00ednh K\u1ecbch","slug":"chinh-kich"},{"id":"a7b065b92ad356387ef2e075dee66529","name":"T\u00e2m L\u00fd","slug":"tam-ly"}],"country":[{"id":"a0cd53c9875b96640ac264ca81996f9f","name":"H\u00f4\u0300ng K\u00f4ng","slug":"hong-kong"}]},{"tmdb":{"type":"movie","id":"67346","season":null,"vote_average":6.5,"vote_count":31},"imdb":{"id":null},"created":{"time":"2025-08-08T20:24:23.000Z"},"modified":{"time":"2025-08-08T20:24:23.000Z"},"_id":"58135dbb6c9b1de7e45e7486908b2740","name":"\u0110\u1eb7c C\u1ea3nh Di\u1ec7t Ma","slug":"dac-canh-diet-ma","origin_name":"Magic Cop","type":"single","poster_url":"upload\/vod\/20250808-1\/bfaa38098d101f0497e77fdb72b4f154.jpg","thumb_url":"upload\/vod\/20250808-1\/6c42cc81c0a36f248799d186aa1f55f2.jpg","sub_docquyen":false,"chieurap":false,"time":"88 ph\u00fat","episode_current":"Full","quality":"FHD","lang":"Vietsub + L\u1ed3ng Ti\u1ebfng","year":1990,"category":[{"id":"ba6fd52e5a3aca80eaaf1a3b50a182db","name":"H\u00e0i H\u01b0\u1edbc","slug":"hai-huoc"},{"id":"7a035ac0b37f5854f0f6979260899c90","name":"H\u00ecnh S\u1ef1","slug":"hinh-su"},{"id":"68564911f00849030f9c9c144ea1b931","name":"Vi\u1ec5n T\u01b0\u1edfng","slug":"vien-tuong"},{"id":"4db8d7d4b9873981e3eeb76d02997d58","name":"Kinh D\u1ecb","slug":"kinh-di"},{"id":"a7b065b92ad356387ef2e075dee66529","name":"T\u00e2m L\u00fd","slug":"tam-ly"}],"country":[{"id":"a0cd53c9875b96640ac264ca81996f9f","name":"H\u00f4\u0300ng K\u00f4ng","slug":"hong-kong"}]}],"params":{"type_slug":"the-loai","slug":"kinh-di","filterCategory":["kinh-di"],"filterCountry":[""],"filterYear":[""],"filterType":[""],"sortField":"modified.time","sortType":"desc","pagination":{"totalItems":2212,"totalItemsPerPage":20,"currentPage":1,"totalPages":111}},"type_list":"kinh-di","APP_DOMAIN_FRONTEND":"https:\/\/phimapi.com","APP_DOMAIN_CDN_IMAGE":"https:\/\/phimimg.com"}}